
(module CAPC2012X145N (layer F.Cu) (tedit 62DE0A95)
  (descr "")
  (fp_text reference REF** (at -0.46 -1.32 0) (layer F.SilkS)
    (effects (font (size 0.393700787402 0.393700787402) (thickness 0.15)))
  )
  (fp_text value CAPC2012X145N (at 1.54 1.32 0) (layer F.Fab)
    (effects (font (size 0.393700787402 0.393700787402) (thickness 0.15)))
  )
  (pad 1 smd rect (at -0.88 0.0) (size 1.15 1.47) (layers F.Cu F.Mask F.Paste))
  (pad 2 smd rect (at 0.88 0.0) (size 1.15 1.47) (layers F.Cu F.Mask F.Paste))
  (fp_line (start 1.1 0.72) (end -1.1 0.72) (layer F.Fab) (width 0.127))
  (fp_line (start 1.1 -0.72) (end -1.1 -0.72) (layer F.Fab) (width 0.127))
  (fp_line (start 1.1 0.72) (end 1.1 -0.72) (layer F.Fab) (width 0.127))
  (fp_line (start -1.1 0.72) (end -1.1 -0.72) (layer F.Fab) (width 0.127))
  (fp_line (start -1.708 0.983) (end 1.708 0.983) (layer F.CrtYd) (width 0.05))
  (fp_line (start -1.708 -0.983) (end 1.708 -0.983) (layer F.CrtYd) (width 0.05))
  (fp_line (start -1.708 0.983) (end -1.708 -0.983) (layer F.CrtYd) (width 0.05))
  (fp_line (start 1.708 0.983) (end 1.708 -0.983) (layer F.CrtYd) (width 0.05))
)