(module "RJ458Z4" (layer F.Cu)
  (descr "RJ45-8Z4-1")
  (tags "Connector")
  (fp_text reference J** (at -4.075 4.445) (layer F.SilkS)
    (effects (font (size 1.27 1.27) (thickness 0.254)))
  )
  (fp_text user %R (at -4.075 4.445) (layer F.Fab)
    (effects (font (size 1.27 1.27) (thickness 0.254)))
  )
  (fp_text value "RJ458Z4" (at -4.075 4.445) (layer F.SilkS) hide
    (effects (font (size 1.27 1.27) (thickness 0.254)))
  )
  (fp_line (start -14.23 12.445) (end 4.57 12.445) (layer F.Fab) (width 0.2))
  (fp_line (start 4.57 12.445) (end 4.57 -3.555) (layer F.Fab) (width 0.2))
  (fp_line (start 4.57 -3.555) (end -14.23 -3.555) (layer F.Fab) (width 0.2))
  (fp_line (start -14.23 -3.555) (end -14.23 12.445) (layer F.Fab) (width 0.2))
  (fp_line (start 4.57 12.445) (end -5.25 12.445) (layer F.SilkS) (width 0.1))
  (fp_line (start -5.25 12.445) (end -5.25 12.445) (layer F.SilkS) (width 0.1))
  (fp_line (start -5.25 12.445) (end 4.57 12.445) (layer F.SilkS) (width 0.1))
  (fp_line (start 4.57 12.445) (end 4.57 12.445) (layer F.SilkS) (width 0.1))
  (fp_line (start -12 12.445) (end -14.25 12.445) (layer F.SilkS) (width 0.1))
  (fp_line (start -14.25 12.445) (end -14.25 12.445) (layer F.SilkS) (width 0.1))
  (fp_line (start -14.25 12.445) (end -12 12.445) (layer F.SilkS) (width 0.1))
  (fp_line (start -12 12.445) (end -12 12.445) (layer F.SilkS) (width 0.1))
  (fp_line (start -14.25 12.445) (end -14.23 12.445) (layer F.SilkS) (width 0.1))
  (fp_line (start -14.23 12.445) (end -14.23 -3.555) (layer F.SilkS) (width 0.1))
  (fp_line (start -14.23 -3.555) (end -14.25 -3.555) (layer F.SilkS) (width 0.1))
  (fp_line (start -14.25 -3.555) (end -14.25 12.445) (layer F.SilkS) (width 0.1))
  (fp_line (start -14.23 -3.555) (end -11.5 -3.555) (layer F.SilkS) (width 0.1))
  (fp_line (start -11.5 -3.555) (end -11.5 -3.555) (layer F.SilkS) (width 0.1))
  (fp_line (start -11.5 -3.555) (end -14.23 -3.555) (layer F.SilkS) (width 0.1))
  (fp_line (start -14.23 -3.555) (end -14.23 -3.555) (layer F.SilkS) (width 0.1))
  (fp_line (start -7 -3.555) (end 4.57 -3.555) (layer F.SilkS) (width 0.1))
  (fp_line (start 4.57 -3.555) (end 4.57 -3.555) (layer F.SilkS) (width 0.1))
  (fp_line (start 4.57 -3.555) (end -7 -3.555) (layer F.SilkS) (width 0.1))
  (fp_line (start -7 -3.555) (end -7 -3.555) (layer F.SilkS) (width 0.1))
  (fp_line (start -15.25 -6.188) (end 7.1 -6.188) (layer F.CrtYd) (width 0.1))
  (fp_line (start 7.1 -6.188) (end 7.1 15.078) (layer F.CrtYd) (width 0.1))
  (fp_line (start 7.1 15.078) (end -15.25 15.078) (layer F.CrtYd) (width 0.1))
  (fp_line (start -15.25 15.078) (end -15.25 -6.188) (layer F.CrtYd) (width 0.1))
  (fp_line (start 4.57 -3.555) (end 4.57 -3.555) (layer F.SilkS) (width 0.1))
  (fp_line (start 4.57 -3.555) (end 4.57 12.445) (layer F.SilkS) (width 0.1))
  (fp_line (start 4.57 12.445) (end 4.57 12.445) (layer F.SilkS) (width 0.1))
  (fp_line (start 4.57 12.445) (end 4.57 -3.555) (layer F.SilkS) (width 0.1))
  (fp_line (start 6 -0) (end 6 -0) (layer F.SilkS) (width 0.2))
  (fp_line (start 6.1 -0) (end 6.1 -0) (layer F.SilkS) (width 0.2))
  (fp_line (start 6 -0) (end 6 -0) (layer F.SilkS) (width 0.2))
  (fp_arc (start 6.05 -0) (end 6.000 -0) (angle -180) (layer F.SilkS) (width 0.2))
  (fp_arc (start 6.05 -0) (end 6.100 -0) (angle -180) (layer F.SilkS) (width 0.2))
  (fp_arc (start 6.05 -0) (end 6.000 -0) (angle -180) (layer F.SilkS) (width 0.2))
  (pad 1 thru_hole circle (at 0.000 -0) (size 1.493 1.493) (drill 0.96) (layers *.Cu *.Mask))
  (pad 2 thru_hole circle (at 2.540 1.27) (size 1.493 1.493) (drill 0.96) (layers *.Cu *.Mask))
  (pad 3 thru_hole circle (at 0.000 2.54) (size 1.493 1.493) (drill 0.96) (layers *.Cu *.Mask))
  (pad 4 thru_hole circle (at 2.540 3.81) (size 1.493 1.493) (drill 0.96) (layers *.Cu *.Mask))
  (pad 5 thru_hole circle (at 0.000 5.08) (size 1.493 1.493) (drill 0.96) (layers *.Cu *.Mask))
  (pad 6 thru_hole circle (at 2.540 6.35) (size 1.493 1.493) (drill 0.96) (layers *.Cu *.Mask))
  (pad 7 thru_hole circle (at 0.000 7.62) (size 1.493 1.493) (drill 0.96) (layers *.Cu *.Mask))
  (pad 8 thru_hole circle (at 2.540 8.89) (size 1.493 1.493) (drill 0.96) (layers *.Cu *.Mask))
  (pad MH1 thru_hole circle (at -9.400 -3.68) (size 3.015 3.015) (drill 2.01) (layers *.Cu *.Mask))
  (pad MH2 thru_hole circle (at -9.400 12.57) (size 3.015 3.015) (drill 2.01) (layers *.Cu *.Mask))
  (pad MH3 np_thru_hole circle (at -6.350 -1.27) (size 3.33 0) (drill 3.33) (layers *.Cu *.Mask))
  (pad MH4 np_thru_hole circle (at -6.350 10.16) (size 3.33 0) (drill 3.33) (layers *.Cu *.Mask))
  (model RJ45-8Z4.stp
    (at (xyz -0.19291338958139 -0.17165354856356 -0.0023622046716101))
    (scale (xyz 1 1 1))
    (rotate (xyz -90 0 90))
  )
)
